<?xml version="1.0" encoding="UTF-8"?>
<CustomTab xmlns="http://soap.sforce.com/2006/04/metadata">
    <description>Improved Help Settings Page</description>
    <label>Help Settings</label>
    <mobileReady>false</mobileReady>
    <motif>Custom119: TV Widescreen</motif>
    <page>IHManageSettings</page>
</CustomTab>
